{
    "DryRun": false, 
    "ImageId": "ami-2a34e94a", 
    "KeyName": "noahm@doom", 
    "SecurityGroupIds": [
        "sg-3d284a44"
    ], 
    "InstanceType": "t2.micro", 
    "BlockDeviceMappings": [
	{
            "DeviceName": "/dev/sdb",
            "Ebs": {
		"VolumeSize": 8,
		"DeleteOnTermination": false,
		"VolumeType": "gp2",
		"Encrypted": false
            }
	}
    ],
    "Monitoring": {
        "Enabled": false
    }, 
    "SubnetId": "subnet-48b3f43f", 
    "DisableApiTermination": false, 
    "InstanceInitiatedShutdownBehavior": "stop", 
    "EbsOptimized": false
}
